409FF0020$1$0.0.12$9
61905212444718$2$0.0.18$9
010812224C8660$3$0.0.14$9
060341887FC020$4$0.0.18$9
009E12424888E0$5$0.0.16$9
3F0912424848F0$6$0.0.20$9
C010020E4E0E00$7$0.0.14$9
77111222444770$8$0.0.21$9
